…
    ## # A tibble: 0 x 2
    ## # … with 2 variables: id <int>, n <int>

player id, year id, and stint

``` r
flights2 <- flights %>%
  select(year:day, hour, origin, dest, tailnum, carrier)
#view(flights2)
flights2 %>%
  select(-origin, -dest)%>%
  left_join(airlines, by = "carrier")
```

    ## # A tibble: 336,776 x 7
    ##     year month   day  hour tailnum carrier name                    
    ##    <int> <int> <int> <dbl> <chr>   <chr>   <chr>                   
    ##  1  2013     1     1     5 N14228  UA      United Air Lines Inc.   
    ##  2  2013     1     1     5 N24211  UA      United Air Lines Inc.   
    ##  3  2013     1     1     5 N619AA  AA      American Airlines Inc.  
    ##  4  2013     1     1     5 N804JB  B6      JetBlue Airways         
    ##  5  2013     1     1     6 N668DN  DL      Delta Air Lines Inc.    
    ##  6  2013     1     1     5 N39463  UA      United Air Lines Inc.   
    ##  7  2013     1     1     6 N516JB  B6      JetBlue Airways         
    ##  8  2013     1     1     6 N829AS  EV      ExpressJet Airlines Inc.
    ##  9  2013     1     1     6 N593JB  B6      JetBlue Airways         
    ## 10  2013     1     1     6 N3ALAA  AA      American Airlines Inc.  
    ## # … with 336,766 more rows
…
``` r
flights %>%
  left_join(airports, by = c("dest" = "faa"))
```

    ## # A tibble: 336,776 x 26
    ##     year month   day dep_time sched_dep_time dep_delay arr_time
    ##    <int> <int> <int>    <int>          <int>     <dbl>    <int>
    ##  1  2013     1     1      517            515         2      830
    ##  2  2013     1     1      533            529         4      850
    ##  3  2013     1     1      542            540         2      923
    ##  4  2013     1     1      544            545        -1     1004
    ##  5  2013     1     1      554            600        -6      812
    ##  6  2013     1     1      554            558        -4      740
    ##  7  2013     1     1      555            600        -5      913
    ##  8  2013     1     1      557            600        -3      709
    ##  9  2013     1     1      557            600        -3      838
    ## 10  2013     1     1      558            600        -2      753
    ## # … with 336,766 more rows, and 19 more variables: sched_arr_time <int>,
    ## #   arr_delay <dbl>, carrier <chr>, flight <int>, tailnum <chr>,
    ## #   origin <chr>, dest <chr>, air_time <dbl>, distance <dbl>, hour <dbl>,
    ## #   minute <dbl>, time_hour <dttm>, name <chr>, lat <dbl>, lon <dbl>,
    ## #   alt <dbl>, tz <dbl>, dst <chr>, tzone <chr>
…
